Customer-Centric Analysis of an Online Retailer
…
There are instances where the first order of a customer is a Return (meaning the original purchases are not in our data). These need to be deleted.

#find instances where the first order by a customer is a Return 
first_orders <- data %>% 
  filter(!is.na(CustomerID)) %>% 
  group_by(CustomerID, InvoiceDate) %>% 
  summarize(sales = sum(Sale)) %>% 
  filter(InvoiceDate == first(InvoiceDate),
         sales < 0) %>% 
  mutate(first_order_neg = 'Yes') %>% 
  select(CustomerID, InvoiceDate, first_order_neg)
first_orders

## # A tibble: 272 x 3
## # Groups:   CustomerID [272]
##    CustomerID InvoiceDate         first_order_neg
##    <fct>      <dttm>              <chr>          
##  1 12349      2009-12-04 12:49:00 Yes            
##  2 12382      2010-01-26 16:25:00 Yes            
##  3 12424      2009-12-07 14:43:00 Yes            
##  4 12454      2010-01-26 16:24:00 Yes            
##  5 12468      2010-01-19 12:13:00 Yes            
##  6 12471      2009-12-02 14:43:00 Yes            
##  7 12472      2009-12-09 10:47:00 Yes            
##  8 12484      2009-12-03 10:57:00 Yes            
##  9 12487      2009-12-09 09:16:00 Yes            
## 10 12497      2010-01-26 17:21:00 Yes            
## # ... with 262 more rows
…
Q: Where do the top 27% of the customers come from?

Almost 90% are from the UK, followed by Germany and France

data %>% 
  filter(top27cust == 'yes') %>% 
  group_by(Country) %>% 
  summarize(n_cust = n_distinct(CustomerID)) %>% 
  arrange(desc(n_cust)) %>% 
  mutate(prop = round(n_cust / sum(n_cust), 2))

## # A tibble: 29 x 3
##    Country         n_cust  prop
##    <chr>            <int> <dbl>
##  1 United Kingdom    1055  0.89
##  2 Germany             33  0.03
##  3 France              18  0.02
##  4 Switzerland          8  0.01
##  5 Spain                7  0.01
##  6 Belgium              6  0.01
##  7 Channel Islands      6  0.01
##  8 Austria              5  0   
##  9 Italy                5  0   
## 10 Netherlands          5  0   
## # ... with 19 more rows
…
We saw from the analysis above that a quarter of our customers accounted for 80% of the sales. We can calculate the RFM of each customer and proceed with K-means clustering to identify segments and generating customer-centric business intelligence.

note: will exclude customers with negative Monetary value; they are caused unexplained Manual adjustments

today <- last(data$Date)
RFM <- customers %>% 
  transmute(CustomerID, 
            Recency = as.numeric(today-last_order),
            Frequency = orders,
            Monetary = sales)  %>% 
  filter(Monetary > 0)
  
RFM

## # A tibble: 4,288 x 4
##    CustomerID Recency Frequency Monetary
##    <fct>        <dbl>     <int>    <dbl>
##  1 18102            0        95  341777.
##  2 14646            9        87  243853.
##  3 14156            6       138  183181.
##  4 14911            0       270  137676.
##  5 13694            8       105  128172.
##  6 17511            2        42   83761.
##  7 15061            2        90   82163.
##  8 16684           14        34   75610.
##  9 13089            3       132   55828.
## 10 16754            7        35   54558.
## # ... with 4,278 more rows
…
